Sequential/tb/instruction_mem_tb.vcd
$date
	Sun Feb 22 23:26:19 2026
$end
$version
	Icarus Verilog
$end
$timescale
	1ps
$end
$scope module instruction_mem_tb $end
$var wire 32 ! instr [31:0] $end
$var reg 64 " addr [63:0] $end
$var integer 32 # failed_tests [31:0] $end
$var integer 32 $ total_tests [31:0] $end
$scope module uut $end
$var wire 64 % addr [63:0] $end
$var wire 12 & relevant_addr [11:0] $end
$var wire 32 ' instr [31:0] $end
$var integer 32 ( i [31:0] $end
$upscope $end
$scope task check $end
$var reg 32 ) expected [31:0] $end
$var reg 256 * testname [255:0] $end
$upscope $end
$upscope $end
$enddefinitions $end
$comment Show the parameter values. $end
$dumpall
$end
#0
$dumpvars
b10010010110111001110011011101000111001000100000010000000010000000110000 *
b10100000000000100010011 )
b1000000000000 (
b10100000000000100010011 '
b0 &
b0 %
b0 $
b0 #
b0 "
b10100000000000100010011 !
$end
#1000
b101000000000000110010011 !
b101000000000000110010011 '
b100 &
b10010010110111001110011011101000111001000100000010000000010000000110100 *
b101000000000000110010011 )
b100 "
b100 %
b1 $
#2000
b1100010000000010110011 !
b1100010000000010110011 '
b1000 &
b10010010110111001110011011101000111001000100000010000000010000000111000 *
b1100010000000010110011 )
b1000 "
b1000 %
b10 $
#3000
b1000000001100010000000100110011 !
b1000000001100010000000100110011 '
b1100 &
b1001001011011100111001101110100011100100010000001000000001000000011000100110010 *
b1000000001100010000000100110011 )
b1100 "
b1100 %
b11 $
#4000
b1100011111001000110011 !
b1100011111001000110011 '
b10000 &
b1001001011011100111001101110100011100100010000001000000001000000011000100110110 *
b1100011111001000110011 )
b10000 "
b10000 %
b100 $
#5000
b10000011111001010110011 !
b10000011111001010110011 '
b10100 &
b1001001011011100111001101110100011100100010000001000000001000000011001000110000 *
b10000011111001010110011 )
b10100 "
b10100 %
b101 $
#6000
b10000010110001100110011 !
b10000010110001100110011 '
b11000 &
b1001001011011100111001101110100011100100010000001000000001000000011001000110100 *
b10000010110001100110011 )
b11000 "
b11000 %
b110 $
#7000
b1000000001100010000000100110011 !
b1000000001100010000000100110011 '
b1100 &
b1001001011011100111001101110100011100100010000001000000001000000011000100110010 *
b1000000001100010000000100110011 )
b1100 "
b1100 %
b111 $
#8000
b100101011000000100011 !
b100101011000000100011 '
b100000 &
b1001001011011100111001101110100011100100010000001000000001000000011001100110010 *
b100101011000000100011 )
b100000 "
b100000 %
b1000 $
#9000
b101011010100000011 !
b101011010100000011 '
b100100 &
b1001001011011100111001101110100011100100010000001000000001000000011001100110110 *
b101011010100000011 )
b100100 "
b100100 %
b1001 $
#10000
b11000101011110000100011 !
b11000101011110000100011 '
b101000 &
b1001001011011100111001101110100011100100010000001000000001000000011010000110000 *
b11000101011110000100011 )
b101000 "
b101000 %
b1010 $
#11000
b1100000101011010110000011 !
b1100000101011010110000011 '
b101100 &
b1001001011011100111001101110100011100100010000001000000001000000011010000110100 *
b1100000101011010110000011 )
b101100 "
b101100 %
b1011 $
#12000
b10100100000010001100011 !
b10100100000010001100011 '
b110000 &
b1001001011011100111001101110100011100100010000001000000001000000011010000111000 *
b10100100000010001100011 )
b110000 "
b110000 %
b1100 $
#13000
b1100011 !
b1100011 '
b110100 &
b1001001011011100111001101110100011100100010000001000000001000000011010100110010 *
b1100011 )
b110100 "
b110100 %
b1101 $
#14000
b101000001000011010110011 !
b101000001000011010110011 '
b111000 &
b1001001011011100111001101110100011100100010000001000000001000000011010100110110 *
b101000001000011010110011 )
b111000 "
b111000 %
b1110 $
#15000
b1111 $
